{
  "Investigadores": [
    {
      "Correo":"kiquesasuke@gmail.com",
      "Nombre":"Luis Enrique Sosa Hernández",
      "Contacto":"kiquesasuke@gmail.com",
      "Tel":"+52 2291766675",
      "Ac":"si",
      "At":"si",
      "Lp":["C","C++","Javascript","Python","Ruby","Android"],
      "Ai":["Programacion web","Pogramación móvil"],
      "Certificaciones":[],
      "Concursos":["ACM"],
      "Extras":["https://coj.uci.cu/user/useraccount.xhtml?username=kiquesasuke"],
      "Categoria":"Web"
    },
     {
      "Correo":"raymundo_090495@hotmail.com",
      "Nombre":"Raymundo González Luna",
      "Contacto":"raymundo_090495@hotmail.com",
      "Tel":"2292642326",
      "Ac":"si",
      "At":"si",
      "Lp":["C","C++","C++11","Java"],
      "Ai":["Estructura de datos","Teoría de números","Programación dinámica"],
      "Certificaciones":[],
      "Concursos":["The 2016 ACM-ICPC Mexico and Central America Finals, Lugar 14°","The 2015 ACM-ICPC Mexico and Central America Finals, Lugar 34°"],
      "Extras":[],
      "Categoria":"Competitiva"
    },
    {
      "Correo":"dafnehdzvzq@hotmail.com",
      "Nombre":"Dafne Angélica Hernández Vázquez",
      "Contacto":"dafnehdzvzq@hotmail.com",
      "Tel":"2293653980",
      "Ac":"si",
      "At":"si",
      "Lp":["C","C++","Java"],
      "Ai":[],
      "Certificaciones":[],
      "Concursos":["Gran Premio de México y Centroamérica 2017, Primera Fecha (2 abril) lugar: 134, equipo Toshinovo","Segunda Fecha(29 de abril) lugar: 99, equipo Toshinovo"],
      "Extras":[],
      "Categoria":"Competitiva"
    },
    {
      "Correo":"grdvalencia.r@gmail.com",
      "Nombre":"Gerardo Valencia Rivero",
      "Contacto":"grdvalencia.r@gmail.com",
      "Tel":"2292658376",
      "Ac":"si",
      "At":"si",
      "Lp":["Javascript"],
      "Ai":["Programación web"],
      "Certificaciones":[],
      "Concursos":[],
      "Extras":[],
      "Categoria":"Web"
    },
    {
      "Correo":"aldoperez1319@gmail.com",
      "Nombre":"Jorge Aldo Pérez",
      "Contacto":"aldoperez1319@gmail.com",
      "Tel":"2291697595",
      "Ac":"si",
      "At":"si",
      "Lp":["Java","C","C++","Python"],
      "Ai":["Seguridad Informática"],
      "Certificaciones":[],
      "Concursos":["Gran Premio de México & Centroamérica noviembre del 2015 Veracruz ,78 th place"],
      "Extras":["https://www.linkedin.com/in/jorge-aldo-perez-3a0115112/"],
      "Categoria":"Seguridad"
    },
    {
      "Correo":"luis_milaus@hotmail.com",
      "Nombre":"Luis Angel Trujillo Garcia",
      "Contacto":"luis_milaus@hotmail.com",
      "Tel":"2292164229",
      "Ac":"si",
      "At":"si",
      "Lp":["C","C++","Java","PHP","Javascript","JQuery","Android"],
      "Ai":["Desarrollo de Páginas Web","Programación Competitiva"],
      "Certificaciones":[],
      "Concursos":["ACM ICPC Mexico and Central America Regional 2015 ranked 39th place"],
      "Extras":["luistg.github.io"],
      "Categoria":"Competitiva"
    },
    {
      "Correo":"danielmtz_cesta@hotmail.com",
      "Nombre":"Eduardo Daniel Martínez Cesta",
      "Contacto":"thepuma_deoro@hotmail.com",
      "Tel":"2291019756",
      "Ac":"si",
      "At":"si",
      "Lp":["Java","C","C++","C#"],
      "Ai":["Programación Web front-end y back-end"],
      "Certificaciones":[],
      "Concursos":[],
      "Extras":["https://github.com/DanielMartinezSesta"],
      "Categoria":"Web"
    },
    {
      "Correo":"RM_Israel@outlook.com",
      "Nombre":"José De Israel Rubio Moreno",
      "Contacto":"RM_Israel@outlook.com",
      "Tel":"2297791049",
      "Ac":"si",
      "At":"si",
      "Lp":["C","C++"],
      "Ai":["Estructura de datos","Grafos"],
      "Certificaciones":["",""],
      "Concursos":["",""],
      "Extras":[""],
      "Categoria":"Competitiva"
    },
    {
      "Correo":"raqrodvirg@hotmail.com",
      "Nombre":"Raquel Rodríguez Virgen",
      "Contacto":"raqrodvirg@hotmail.com",
      "Tel":"2291707569",
      "Ac":"si",
      "At":"no",
      "Lp":["C","C++","Java"],
      "Ai":["Estructura de Datos"],
      "Certificaciones":[],
      "Concursos":[],
      "Extras":[],
      "Categoria":"Competitiva"
    },
    {
      "Correo":"gromtz_@hotmail.com",
      "Nombre":"Guillermo Mauricio Robles Martinez",
      "Contacto":"gromtz_@hotmail.com",
      "Tel":"+1 (425) 499 4827",
      "Ac":"si",
      "At":"no",
      "Lp":["Java","Typescript"],
      "Ai":["Aplicaciones WEB"],
      "Certificaciones":["IBM Certified Database Associate","-- DB2 9 Fundamentals Oracle","Certified Expert, Java EE 6 Web ","Component Developer Oracle","Certified Professional, Java SE 6 Programmer"],
      "Concursos":["The 2012 ACM - ICPC Mexico, Central America and Caribbean  = 31st place."],
      "Extras":["Software development engineer@Amazon","https://www.linkedin.com/in/guillermo-robles-mart%C3%ADnez-8b040a99/"],
      "Categoria":"Egresado"
    },
    {
      "Correo":"crtc.carlos@gmail.com",
      "Nombre":"Carlos raymundo tijerino capetillo",
      "Contacto":"crtc.carlos@gmail.com",
      "Tel":"2292561450",
      "Ac":"si",
      "At":"no",
      "Lp":["Java","objetiveC","PHP","Javascript"],
      "Ai":["Desarrollo de software"],
      "Certificaciones":[],
      "Concursos":["Programación acm "],
      "Extras":["Desarrollador de plataformas móviles en Entura México","Desarrollo de aplicaciones móviles(IOS/Android)","Desarrollo de sistemas web"],
      "Categoria":"Egresado"
    },
    {
      "Correo":"fer._jerezano@hotmail.com",
      "Nombre":"Fernando Rafael Jerezano Balderas",
      "Contacto":"fer._jerezano@hotmail.com",
      "Tel":"2291026640",
      "Ac":"si",
      "At":"si",
      "Lp":["Cpp","Java"],
      "Ai":["Programación Competitiva"],
      "Certificaciones":[],
      "Concursos":["Gran Premio de México & CA 2015 - Lugar 78","Gran Premio de México & CA 2016 - Lugar 44","The 2016 ACM-ICPC Mexico and Central America Finals - Lugar 52"],
      "Extras":[],
      "Categoria":"Competitiva"
    },
    {
      "Correo":"10gatos98@live.com.mx",
      "Nombre":"Sergio Alarcon Rodriguez",
      "Contacto":"sergioalarxon@hotmail.com",
      "Tel":"2293995860",
      "Ac":"si",
      "At":"no",
      "Lp":["C","C++","Java"],
      "Ai":["Data structure and Graphs"],
      "Certificaciones":[],
      "Concursos":[],
      "Extras":[],
      "Categoria":"Competitiva"
    },
    {
      "Correo":"lupitaescobedodguez@gmail.com",
      "Nombre":"María Guadalupe Escobedo Domínguez",
      "Contacto":"lupitaescobedodguez@gmail.com",
      "Tel":"2961092317",
      "Ac":"si",
      "At":"no",
      "Lp":["C","C++","Java"],
      "Ai":["Programación Dinámica","Grafos","Teoría de Números","Queries"],
      "Certificaciones":[],
      "Concursos":["Gran Premio México & Centroamérica 2015, lugar 78","Gran Premio México & Centroamérica 2016, lugar 47"],
      "Extras":[],
      "Categoria":"Competitiva"
    },
    {
      "Correo":"ils1801@hotmail.com",
      "Nombre":"Linares Segura Irvin",
      "Contacto":"ils1801@hotmail.com",
      "Tel":"2293714456",
      "Ac":"si",
      "At":"no",
      "Lp":["Java"],
      "Ai":[],
      "Certificaciones":[],
      "Concursos":["Gran Premio de México y Centroamérica 2017 Segunda Fecha 29 de abril de 2017 lugar 99"],
      "Extras":[],
      "Categoria":"Competitiva"
    },
    {
      "Correo":"enriquejlicona@gmail.com",
      "Nombre":"Enrique de Jesús Licona Loyo",
      "Contacto":"enriquejlicona@gmail.com",
      "Tel":"22 92 15 10 61",
      "Ac":"si",
      "At":"si",
      "Lp":["C++","C","Java"],
      "Ai":["Teoría de grafos","Teoría de números","Estructura de datos"],
      "Certificaciones":["ACM Certificate of Achievement: Lugar 87 en los concursos de clasificación a la eliminatoria regional de la ACM-ICPC de la región México & Centroamérica 2015 representando al Instituto Tecnológico de Veracruz.","ACM Certificate of Achievement: Lugar 48 en los concursos de clasificación a la eliminatoria regional de la ACM-ICPC de la región México & Centroamérica 2016 representando al Instituto Tecnológico de Veracruz","ACM Certificate of Achievement: Mención de Honor por concursar y representar al Instituto Tecnológico de Veracruz  en los concursos de clasificación a la eliminatoria regional de la ACM International Collegiate Programming Contest (ACM-ICPC) de la región México & Centroamérica"],
      "Concursos":["Concursos de clasificación a la eliminatoria regional de la ACM-ICPC 2015 de la región México & Centroamérica Año: 2015 Sede: Instituto Tecnológico de Veracruz, Veracruz, Ver. Posición: 87","Concursos de clasificación a la eliminatoria regional de la ACM-ICPC 2016 de la región México & Centroamérica Año: 2016 Sede: Instituto Tecnológico de Veracruz, Veracruz, Ver. Posición: 48","Concursos de clasificación a la eliminatoria regional de la ACM-ICPC 2017 de la región México & Centroamérica Año: 2017 Sede: Instituto Tecnológico de Veracruz, Veracruz, Ver. Posición: Por definir"],
      "Extras":["http://coj.uci.cu/user/useraccount.xhtml?username=enriqueLicona","http://uhunt.felix-halim.net/id/850394"],
      "Categoria":"Competitiva"
    },
    {
      "Correo":"jorgestudillo@gmail.com",
      "Nombre":"Jorge Estudillo Ramírez",
      "Contacto":"jorgestudillo@gmail.com",
      "Tel":"2291044747",
      "Ac":"si",
      "At":"no",
      "Lp":["Java"],
      "Ai":["Programación de Dispositivos Móviles","Desarrollo Web","Metodologías Ágiles"],
      "Certificaciones":[],
      "Concursos":[],
      "Extras":[],
      "Categoria":"Doctor"
    },
    {
      "Correo":"atorreblanca@gmail.com",
      "Nombre":"Alberto Méndez Torreblanca",
      "Contacto":"atorreblanca@gmail.com",
      "Tel":"",
      "Ac":"si",
      "At":"no",
      "Lp":["C","C++","Java","Android"],
      "Ai":["Programación Competitiva","Tecnología Web y Móvil","Educación Computacional"],
      "Certificaciones":["Oracle Certified Associate, Java SE 7 Programmer","ID Certification: 237664953OCAJSE7","Android Certified Professional ID Certification: 1430085525014"],
      "Concursos":[],
      "Extras":["Profesor de Sistemas y Computación","Director de Sede del Gran Premio de México y Centro-América","Asesor y entrenador de CEPC"],
      "Categoria":"Doctor"
    },
    {
      "Correo":"luishdeznoriega@gmail.com",
      "Nombre":"Luis Regino Hernández Noriega",
      "Contacto":"luishdeznoriega@gmail.com",
      "Tel":"2291496964",
      "Ac":"no",
      "At":"no",
      "Lp":["C","C++","Java","PHP","JavaScript"],
      "Ai":["Desarrollo Web","Teoría de Grafos","Programación Dinámica","Estructura de Datos"],
      "Certificaciones":["",""],
      "Concursos":["The 2014 ACM-ICPC Mexico and Central America Finals, Lugar 39°; The 2015 ACM-ICPC Mexico","Central America Finals, Lugar 34°; The 2016 ACM-ICPC Mexico and Central America Finals, Lugar 13°"],
      "Extras":["https://github.com/loxfalcon"],
      "Categoria":"Competitiva"
    },
    {
      "Correo":"edd_pro@hotmail.com",
      "Nombre":"Eduardo Martínez Castro",
      "Contacto":"jasperry247@gmail.com",
      "Tel":"2292658477",
      "Ac":"si",
      "At":"no",
      "Lp":["C","C++"],
      "Ai":[],
      "Certificaciones":[],
      "Concursos":[],
      "Extras":[],
      "Categoria":"Competitiva"
    },
    {
      "Correo":"irving850@Hotmail.com",
      "Nombre":"Irving de jesus Villanueva reyes ",
      "Contacto":"Irving850@hotmail.com",
      "Tel":"2291271760",
      "Ac":"si",
      "At":"no",
      "Lp":["C","C++","Java"],
      "Ai":["Manejo de cadenas (Strings)"],
      "Certificaciones":[],
      "Concursos":[],
      "Extras":[],
      "Categoria":"Competitiva"
    },
    {
      "Correo":"ingluisperez.m@outlook.com",
      "Nombre":"Luis Angel Perez Muñoz",
      "Contacto":"ingluisperez.m@outlook.com",
      "Tel":"2291682073",
      "Ac":"si",
      "At":"no",
      "Lp":["Java","JavaScript","PHP","C","C++"],
      "Ai":["Desarrollo Web","Resolución de problemas","Arquitecturas de Desarrollo"],
      "Certificaciones":[],
      "Concursos":[],
      "Extras":[],
      "Categoria":"Web"
    }
  ]
}
